<!DOCTYPE svg PUBLIC "-//W3C//DTD SVG 1.1//EN" "http://www.w3.org/Graphics/SVG/1.1/DTD/svg11.dtd">

<!-- Uploaded to: SVG Repo, www.svgrepo.com, Transformed by: SVG Repo Mixer Tools -->
<svg width="800px" height="800px" viewBox="0 0 24 24" fill="none" xmlns="http://www.w3.org/2000/svg">

<g id="SVGRepo_bgCarrier" stroke-width="0"/>

<g id="SVGRepo_tracerCarrier" stroke-linecap="round" stroke-linejoin="round"/>

<g id="SVGRepo_iconCarrier"> <path fill-rule="evenodd" clip-rule="evenodd" d="M22.7099 5.79421C22.4248 5.48211 20.2708 3.17995 17.3257 1.76499C15.8446 1.05339 14.1051 0.537489 12.2683 0.6601C10.5472 0.774986 8.81081 1.44662 7.19057 2.9142C5.13666 2.54192 3.55846 2.92677 2.49394 4.0217C1.40549 5.14125 1.09579 6.77376 1.06276 8.22731C1.02891 9.71678 1.28131 11.2428 1.53146 12.3725C1.65771 12.9426 1.78604 13.4235 1.88331 13.7634C1.93137 13.9314 1.97199 14.0654 2.00124 14.1594C2.08641 19.6088 6.53039 24 12 24C17.2352 24 21.5307 19.9771 21.964 14.8541L22.9867 6.66897C23.0214 6.39118 22.9533 6.06056 22.7099 5.79421ZM4.98994 7.37281C4.23662 8.0105 3.60174 8.76553 3.11347 9.62375C3.07254 9.17353 3.05213 8.71763 3.06224 8.27275C3.09171 6.9763 3.37576 5.98381 3.92793 5.41586C4.41282 4.91712 5.33908 4.51889 7.27096 4.97345C7.60807 5.05277 7.96222 4.95202 8.20711 4.70714C9.61269 3.30155 11.0443 2.74625 12.4015 2.65566C13.7846 2.56334 15.1726 2.94938 16.4596 3.56772C18.5886 4.59057 20.2808 6.17022 20.949 6.84591L20.6506 9.23458C20.1999 8.53573 19.6473 7.91228 19.0101 7.37281C17.1724 5.81727 14.6819 5.00003 12 5.00003C9.31814 5.00003 6.82756 5.81727 4.98994 7.37281ZM20 14C20 14.2189 19.9912 14.4358 19.974 14.6503L19.8864 15.351C19.2444 19.1259 15.9578 22 12 22C7.58172 22 4 18.4183 4 14C4 11.8084 4.87826 10.0877 6.28214 8.89932C7.70188 7.69751 9.7113 7.00003 12 7.00003C14.2887 7.00003 16.2981 7.69751 17.7179 8.89932C19.1217 10.0877 20 11.8084 20 14ZM8.03001 17.2426C7.87428 16.6196 8.36619 16.0003 9.00016 15.9998H15.0002C15.6333 16.0003 16.126 16.6172 15.9703 17.24C15.4525 18.9881 13.7854 20 12.0002 20C10.2834 20 8.46902 18.9986 8.03001 17.2426ZM16.5 12C16.5 12.8285 15.8284 13.5 15 13.5C14.1716 13.5 13.5 12.8285 13.5 12C13.5 11.1716 14.1716 10.5 15 10.5C15.8284 10.5 16.5 11.1716 16.5 12ZM9 13.5C9.82843 13.5 10.5 12.8285 10.5 12C10.5 11.1716 9.82843 10.5 9 10.5C8.17157 10.5 7.5 11.1716 7.5 12C7.5 12.8285 8.17157 13.5 9 13.5Z" fill="#000"/> </g>

</svg>